<?xml version="1.0" encoding="utf-8"?>
<!-- Generator: Adobe Illustrator 20.0.0, SVG Export Plug-In . SVG Version: 6.00 Build 0)  -->
<svg version="1.1" xmlns="http://www.w3.org/2000/svg" xmlns:xlink="http://www.w3.org/1999/xlink" x="0px" y="0px"
	 viewBox="0 0 4.7 7.9" style="enable-background:new 0 0 4.7 7.9;" xml:space="preserve">
<g id="Trip_Stories">
	<g>
		<g>
			<path d="M3.2,3.9C3.2,3.9,3.1,3.9,3.2,3.9c-1.1-1.1-2.1-2-3-3c0,0,0,0-0.1-0.1C0,0.7,0,0.6,0.1,0.5c0.1-0.1,0.3-0.3,0.4-0.4
				C0.6,0,0.7,0,0.8,0.1c0,0,0.1,0.1,0.1,0.1c1.2,1.2,2.3,2.3,3.5,3.5c0,0,0.1,0.1,0.1,0.1c0.1,0.1,0.1,0.2,0,0.3c0,0,0,0-0.1,0.1
				C3.3,5.4,2.1,6.5,0.9,7.7c-0.2,0.2-0.3,0.2-0.4,0C0.3,7.6,0.2,7.5,0.1,7.4C0,7.3,0,7.1,0.1,7C1,6.1,1.9,5.2,2.8,4.3
				C2.9,4.2,3.1,4.1,3.2,3.9z"/>
		</g>
	</g>
</g>
<g id="Footer">
</g>
<g id="Reviews">
</g>
<g id="Rides">
</g>
<g id="Recommended_Gear">
</g>
<g id="Gallery">
</g>
<g id="Spec_Sheet">
</g>
<g id="_x33_60_View">
</g>
<g id="Benefits">
</g>
<g id="GT_Story_old" style="display:none;">
</g>
<g id="GT_Story_new" style="display:none;">
</g>
<g id="GT_Story_new_copy">
</g>
<g id="Layer_14">
</g>
<g id="Key_Banner">
</g>
<g id="Secondary_Nav">
</g>
<g id="Nav_Bar">
</g>
<g id="Layer_16">
</g>
</svg>
