<?xml version="1.0" encoding="utf-8"?>
<!-- Generator: Adobe Illustrator 18.1.1, SVG Export Plug-In . SVG Version: 6.00 Build 0)  -->
<svg version="1.1" id="Layer_1" xmlns="http://www.w3.org/2000/svg" xmlns:xlink="http://www.w3.org/1999/xlink" x="0px" y="0px"
	 width="39.8px" height="44.5px" viewBox="-474.4 479.5 39.8 44.5" enable-background="new -474.4 479.5 39.8 44.5"
	 xml:space="preserve">
	 <style>
	 	path {
	 		fill: #979595;
	 	}
	 </style>
<g id="Layer_2">
	<g>
		<g>
			<g>
				<path d="M-474,523.2c-0.1,0-0.1,0-0.2-0.1c-0.1-0.1-0.1-0.2-0.1-0.3v-26c0-0.1,0.1-0.3,0.2-0.3l13.1-3.7c0.1,0,0.2,0,0.3,0.1
					s0.1,0.2,0.1,0.3v26.1c0,0.1-0.1,0.3-0.2,0.3L-474,523.2C-473.9,523.2-473.9,523.2-474,523.2z M-473.6,497v25.4l12.4-3.5v-25.4
					L-473.6,497z"/>
			</g>
			<g>
				<path d="M-447.9,523.2L-447.9,523.2l-13.1-3.7c-0.1,0-0.2-0.2-0.2-0.3v-26.1c0-0.1,0-0.2,0.1-0.3c0.1,0,0.2,0,0.3,0l1.4,0.4
					c0.2,0,0.3,0.2,0.2,0.4c0,0.2-0.2,0.3-0.4,0.2l-1-0.3v25.4l12.4,3.5V497l-1.1-0.4c-0.2-0.1-0.3-0.2-0.2-0.4
					c0.1-0.2,0.2-0.3,0.4-0.2l1.3,0.5c0.1,0,0.2,0.2,0.2,0.3v26.1c0,0.1,0,0.2-0.1,0.3C-447.7,523.2-447.8,523.2-447.9,523.2z"/>
			</g>
			<g>
				<path d="M-447.9,523.2c-0.1,0-0.1,0-0.2-0.1c-0.1-0.1-0.1-0.2-0.1-0.3v-26c0-0.1,0.1-0.3,0.2-0.3l13-3.7c0.1,0,0.2,0,0.3,0.1
					c0.1,0.1,0.1,0.2,0.1,0.3v26.1c0,0.1-0.1,0.3-0.2,0.3L-447.9,523.2C-447.8,523.2-447.8,523.2-447.9,523.2z M-447.6,497v25.4
					l12.4-3.5v-25.4L-447.6,497z"/>
			</g>
			<g>
				<path d="M-453.3,501.9l-0.2-0.3c-0.2-0.3-0.4-0.5-0.7-0.8c-0.5-0.6-1-1.2-1.4-1.8l-0.5-0.6c-1.2-1.6-2.4-3.2-3.5-4.8
					c-0.9-1.3-1.5-2.7-1.8-4.3c-0.4-2.1,0.1-4.3,1.3-6.1c1.2-1.8,3.1-3,5.2-3.4c0.5-0.1,1.1-0.2,1.6-0.2c4,0,7.4,2.8,8.1,6.9
					c0.3,1.6,0.1,3.3-0.7,5c-0.9,2-2.1,3.7-3.3,5.2c-0.9,1.1-1.7,2.2-2.6,3.3l-1.1,1.3c0,0.1-0.1,0.1-0.1,0.2L-453.3,501.9z
					 M-453.3,480.3c-0.5,0-1,0-1.5,0.1c-1.9,0.4-3.6,1.5-4.8,3.1c-1.1,1.7-1.6,3.7-1.2,5.6c0.3,1.4,0.8,2.8,1.7,4
					c1.1,1.6,2.3,3.2,3.5,4.8l0.5,0.6c0.5,0.6,0.9,1.2,1.4,1.8c0.1,0.2,0.3,0.3,0.4,0.5l1-1.3c0.9-1.1,1.8-2.2,2.6-3.3
					c1.2-1.5,2.3-3.2,3.2-5.1c0.7-1.7,0.9-3.2,0.7-4.7C-446.5,482.9-449.5,480.3-453.3,480.3z M-453.3,491L-453.3,491
					c-1.7,0-3.2-1.5-3.2-3.2s1.4-3.2,3.2-3.2l0,0c1.8,0,3.2,1.4,3.2,3.2c0,0.8-0.3,1.6-0.9,2.3C-451.6,490.7-452.4,491-453.3,491z
					 M-453.3,485v0.3c-1.4,0-2.5,1.1-2.5,2.5s1.2,2.5,2.5,2.6l0,0c0.7,0,1.3-0.3,1.8-0.8s0.8-1.1,0.8-1.8c0-1.4-1.1-2.5-2.5-2.5
					L-453.3,485z"/>
			</g>
		</g>
	</g>
</g>
</svg>
