<?xml version="1.0" encoding="utf-8"?>
<!-- Generator: Adobe Illustrator 19.2.1, SVG Export Plug-In . SVG Version: 6.00 Build 0)  -->
<svg version="1.1" id="Layer_1" xmlns="http://www.w3.org/2000/svg" xmlns:xlink="http://www.w3.org/1999/xlink" x="0px" y="0px"
	 viewBox="0 0 19.8 29" style="enable-background:new 0 0 19.8 29;" xml:space="preserve">
<style type="text/css">
	.st0{fill:#FFFFFF;}
	.st1{fill:none;stroke:#808080;stroke-width:0.5;stroke-miterlimit:10;}
	.st2{fill:#C62B1E;}
	.st3{fill:none;stroke:#000000;stroke-width:0.5;stroke-miterlimit:10;}
	.st4{fill:#909090;}
	.st5{fill:#4F4F4F;}
	.st6{fill:#4B4F54;}
	.st7{opacity:0.12;fill-rule:evenodd;clip-rule:evenodd;fill:#4F4F4F;}
	.st8{fill:none;stroke:#808080;stroke-miterlimit:10;}
	.st9{opacity:0.8;}
	.st10{fill:none;}
	.st11{fill:none;stroke:#4F4F4F;stroke-width:0.5;stroke-miterlimit:10;}
	.st12{fill:#80291C;}
	.st13{fill:#86754D;}
	.st14{opacity:0.19;}
	.st15{fill:#808080;}
	.st16{fill:#D0291C;}
	.st17{fill:#A3A3A3;}
	.st18{fill:#EAEAEA;}
	.st19{fill:none;stroke:#86754D;stroke-width:0.5;stroke-linecap:round;stroke-linejoin:round;stroke-miterlimit:10;}
	.st20{opacity:0.41;}
	.st21{opacity:0.4;}
	.st22{fill:#5D5D5D;}
	.st23{fill:#A5A5A5;}
	.st24{fill:#1A1A1A;}
	.st25{clip-path:url(#SVGID_30_);}
	.st26{fill:#DA291C;}
	.st27{clip-path:url(#SVGID_34_);}
	.st28{fill:none;stroke:#FFFFFF;stroke-width:1.5;stroke-miterlimit:10;}
</style>
<path class="st2" d="M9.9,0.7c2.5,0,4.8,1,6.5,2.7c1.7,1.7,2.7,4.1,2.7,6.5c0,2.5-1,4.8-2.7,6.5c-1.7,1.7-4.1,2.7-6.5,2.7l0,0
	c-2.5,0-4.8-1-6.5-2.7c-1.7-1.7-2.7-4.1-2.7-6.5c0-2.5,1-4.8,2.7-6.5C5.1,1.6,7.4,0.7,9.9,0.7 M9.9,0C4.4,0,0,4.4,0,9.9
	c0,5.5,4.4,9.9,9.9,9.9s9.9-4.4,9.9-9.9C19.8,4.4,15.4,0,9.9,0L9.9,0z"/>
<g>
	<g>
		<path class="st2" d="M9.7,29c-0.2,0-0.4-0.2-0.4-0.4v-9c0-0.2,0.2-0.4,0.4-0.4s0.4,0.2,0.4,0.4v9C10.1,28.9,9.9,29,9.7,29z"/>
	</g>
</g>
<g>
	<g>
		<path class="st2" d="M2.2,9.2c0,0.7,0.2,1.3,0.6,1.7C2.9,11,2.9,11.1,3,11.2v1c0,1.1,0.4,1.9,1.3,2.4C5,15,8.6,17.1,8.6,17.1
			c0.4,0.2,0.8,0.4,1.3,0.4s0.9-0.2,1.3-0.4c0,0,3.6-2.1,4.3-2.5c0.9-0.5,1.3-1.4,1.3-2.4v-1c0.6-0.5,0.9-1.3,0.9-2l0-1.1
			c0.5-0.4,0.8-1,0.9-1.6c-0.2-0.5-0.4-1-0.7-1.4h-2.6l-4-2.3c-0.4-0.2-0.8-0.4-1.3-0.4S9,2.6,8.6,2.8l-4,2.3H2
			C1.7,5.6,1.5,6,1.3,6.5c0.1,0.6,0.4,1.2,0.9,1.6V9.2z M6.2,12.4c0,0.8-0.1,1.4-0.2,1.8v0H5.8c-1.4,0-2.2-1-2.2-2.1
			c0-0.2,0-0.2,0-0.3c0,0,0-0.1,0-0.1v-0.2c0.2,0.1,0.6,0.2,0.8,0.2c0.1,0,0.2,0,0.3,0c0.5,0,1,0,1.4,0V12.4z M6.2,11.2
			c-0.7,0-1.3,0-1.3,0c-1.6,0-2.2-1.1-2.2-2V8.8v0V8.6V8.5c0.2,0.1,0.6,0.2,0.8,0.2c0.1,0,0.2,0,0.3,0c0.6,0,1.5,0,2.3,0V11.2z
			 M17.1,9.2c0,1-0.6,2-2.2,2c0,0-1,0-2,0c0,0-0.1,0-0.1-0.1c0.7-0.6,1-1.4,1-2.5c0.8,0,1.5,0,2.1,0c0.1,0,0.2,0,0.3,0
			c0.2,0,0.6-0.1,0.8-0.2V9.2z M18.1,5.6v0.5c0,0.9-0.6,2-2.2,2c0,0-0.9,0-2,0c-0.1-0.8-0.4-1.4-0.9-2c-0.2-0.2-0.5-0.4-0.8-0.6
			C15,5.6,18.1,5.6,18.1,5.6z M1.8,6.1V5.6h8c1.3,0,2.2,0.3,2.8,0.9c0.5,0.5,0.8,1.2,0.8,2v0c0,1.2-0.5,2-1.3,2.5
			c0,0,0.2,0.2,0.4,0.4c0.2,0.2,0.3,0.3,0.6,0.3c0.1,0,1.2,0,2,0c0,0,0.2,0,0.3,0c0.2,0,0.6-0.1,0.8-0.2c0,0,0,0.5,0,0.6
			c0,1.1-0.7,2.1-2.2,2.1c0,0-1.3,0-1.7,0c-0.7,0-1.2-0.3-1.6-0.8c-0.3-0.3-1.5-1.8-1.5-1.8H9.2v2.6H6.5v0c0.1-0.4,0.2-0.9,0.2-1.6
			V8.2c-0.6,0-2.7,0-2.7,0C2.4,8.2,1.8,7.1,1.8,6.1z"/>
		<path class="st2" d="M10.8,8.8L10.8,8.8c0-0.6-0.4-0.9-1.2-0.9H9.2v1.8h0.4C10.3,9.7,10.8,9.4,10.8,8.8z"/>
	</g>
</g>
</svg>
