<?xml version="1.0" encoding="utf-8"?>
<!-- Generator: Adobe Illustrator 22.0.1, SVG Export Plug-In . SVG Version: 6.00 Build 0)  -->
<svg version="1.1" id="Layer_1" xmlns="http://www.w3.org/2000/svg" xmlns:xlink="http://www.w3.org/1999/xlink" x="0px" y="0px"
	 viewBox="0 0 20.6 34" style="enable-background:new 0 0 20.6 34;" xml:space="preserve">
<style type="text/css">
	.st0{fill:#85754E;}
	.st1{fill:#C62F27;}
	.st2{fill:#818181;}
	.st3{fill:#009247;}
	.st4{fill:#D92C27;}
	.st5{fill:#D9AB28;}
	.st6{fill:#010101;}
	.st7{fill:#505050;}
	.st8{fill:none;stroke:#505050;stroke-linecap:round;stroke-linejoin:round;stroke-miterlimit:10;}
	.st9{fill:none;stroke:#505050;stroke-linecap:round;stroke-miterlimit:10;}
	.st10{fill:none;stroke:#505050;stroke-miterlimit:10;}
	.st11{fill:#FFFFFF;stroke:#505050;stroke-linecap:round;stroke-linejoin:round;stroke-miterlimit:10;}
	.st12{opacity:0.12;fill-rule:evenodd;clip-rule:evenodd;fill:#505050;}
	.st13{fill:#5E5E5E;}
	.st14{fill:#862B1C;}
	.st15{fill:#FFFFFF;}
	.st16{fill:none;stroke:#818181;stroke-miterlimit:10;}
	.st17{fill:none;stroke:#FFFFFF;stroke-width:0.75;stroke-linecap:round;stroke-linejoin:round;stroke-miterlimit:10;}
	.st18{fill:none;stroke:#FFFFFF;stroke-linecap:round;stroke-linejoin:round;stroke-miterlimit:10;}
	.st19{fill:none;stroke:#FFFFFF;stroke-width:0.75;stroke-miterlimit:10;}
	.st20{fill:none;stroke:#5E5E5E;stroke-width:0.75;stroke-linecap:round;stroke-linejoin:round;stroke-miterlimit:10;}
	.st21{fill:none;stroke:#D81F27;stroke-width:0.75;stroke-linecap:round;stroke-linejoin:round;stroke-miterlimit:10;}
	.st22{fill:none;stroke:#010101;stroke-width:0.25;stroke-miterlimit:10;}
	.st23{fill:none;stroke:#009247;stroke-width:0.25;stroke-miterlimit:10;}
	.st24{fill:none;stroke:#009247;stroke-miterlimit:10;}
	.st25{fill:none;stroke:#009247;stroke-linecap:round;stroke-linejoin:round;stroke-miterlimit:10;}
	.st26{fill:#212121;}
	.st27{fill:none;}
	.st28{fill:#6F7072;}
	.st29{fill:#5D5E5E;}
	.st30{fill:none;stroke:#5D5E5E;stroke-width:0.5;stroke-linecap:round;stroke-linejoin:round;stroke-miterlimit:10;}
	.st31{fill:#FFFFFF;stroke:#818181;stroke-width:1.5;stroke-miterlimit:10;}
	.st32{fill:none;stroke:#818181;stroke-width:1.5;stroke-linecap:round;stroke-linejoin:round;stroke-miterlimit:10;}
	.st33{fill:none;stroke:#010101;stroke-linecap:round;stroke-linejoin:round;stroke-miterlimit:10;}
	.st34{fill:#606161;}
	.st35{fill:none;stroke:#000000;stroke-width:0.75;stroke-linecap:round;stroke-linejoin:round;stroke-miterlimit:10;}
	.st36{fill:none;stroke:#009247;stroke-width:0.75;stroke-linecap:round;stroke-linejoin:round;stroke-miterlimit:10;}
	.st37{fill:none;stroke:#60BD6C;stroke-width:0.75;stroke-linecap:round;stroke-linejoin:round;stroke-miterlimit:10;}
	.st38{fill:none;stroke:#60BD6C;stroke-linecap:round;stroke-linejoin:round;stroke-miterlimit:10;}
	.st39{fill:#60BD6C;}
	.st40{fill:#1D1D1B;}
	.st41{fill:#D5D5D5;}
	.st42{fill:none;stroke:#818181;stroke-width:1.5;stroke-miterlimit:10;}
	.st43{fill:#FFFFFF;stroke:#818181;stroke-width:1.5;stroke-linecap:round;stroke-linejoin:round;stroke-miterlimit:10;}
</style>
<path class="st2" d="M0,0.1v7.9V33c0,0.4,0.2,0.7,0.6,0.9C0.7,34,0.8,34,0.9,34c0.2,0,0.5-0.1,0.7-0.3l8.7-8.7l0.1,0.1l0,0l8.6,8.6
	c0.2,0.2,0.4,0.3,0.7,0.3c0.1,0,0.2,0,0.4-0.1c0.4-0.2,0.6-0.5,0.6-0.9V16.4v-4.5v-4V0.1H0z M1.2,1.3h18.2v5.5H1.2V1.3z M19.4,16.4
	v16l-9.1-9.1l-9.1,9.1V7.9h18.2v3.7V16.4z"/>
</svg>
