<svg xmlns="http://www.w3.org/2000/svg" width="73.5" height="73.562" viewBox="0 0 73.5 73.562">
  <defs>
    <style>
      .cls-1 {
        fill: #fff;
        fill-rule: evenodd;
      }
    </style>
  </defs>
  <path id="RSA" class="cls-1" d="M1648.19,755.986a3.575,3.575,0,0,1-2.39-.9l-23.56-20.75a3.539,3.539,0,0,1-.3-5.046l4.06-4.527a3.643,3.643,0,0,1,5.1-.295l23.56,20.749a3.539,3.539,0,0,1,.3,5.046l-4.07,4.526a3.593,3.593,0,0,1-2.48,1.194C1648.33,755.984,1648.26,755.986,1648.19,755.986Zm-19.49-30.848a2.041,2.041,0,0,0-1.51.668l-4.06,4.528a1.987,1.987,0,0,0,.16,2.821l23.56,20.749a2.035,2.035,0,0,0,2.85-.165l4.07-4.526a1.979,1.979,0,0,0-.17-2.821l-23.56-20.749A2.01,2.01,0,0,0,1628.7,725.138Zm-15.89-7.443a0.791,0.791,0,0,1-.53-0.2l-20.7-18.23a0.773,0.773,0,0,1-.06-1.112,0.8,0.8,0,0,1,1.12-.066l20.7,18.229A0.791,0.791,0,0,1,1612.81,717.7Zm-23.29-15.866-0.07,0a1.869,1.869,0,0,1-1.4-.719l-4.17-5.444a1.8,1.8,0,0,1,.09-2.318l2.43-2.714a1.883,1.883,0,0,1,2.29-.376l6.03,3.374a1.843,1.843,0,0,1,.92,1.29,1.786,1.786,0,0,1-.45,1.511l-4.29,4.785A1.863,1.863,0,0,1,1589.52,701.829Zm-1.74-10.231a0.256,0.256,0,0,0-.19.083l-2.43,2.714a0.248,0.248,0,0,0-.02.314h0l4.18,5.445a0.252,0.252,0,0,0,.2.1,0.261,0.261,0,0,0,.19-0.084l4.29-4.784a0.236,0.236,0,0,0,.06-0.207,0.219,0.219,0,0,0-.12-0.176l-6.03-3.373A0.27,0.27,0,0,0,1587.78,691.6Zm57.93,55.36a0.791,0.791,0,0,1-.53-0.2l-13.79-12.145a0.775,0.775,0,0,1-.06-1.113,0.8,0.8,0,0,1,1.12-.066l13.79,12.145a0.784,0.784,0,0,1,.07,1.113A0.808,0.808,0,0,1,1645.71,746.958Zm-50.92,6.421a5.226,5.226,0,0,1-3.63-1.445l-0.31-.291a5.162,5.162,0,0,1-.08-7.434l42.02-41.606,5.18,5.126-39.28,43.941a5.258,5.258,0,0,1-3.72,1.706C1594.91,753.379,1594.85,753.379,1594.79,753.379Zm38-48.546-40.9,40.489a3.6,3.6,0,0,0-1.07,2.605,3.562,3.562,0,0,0,1.13,2.577l0.31,0.291a3.686,3.686,0,0,0,5.24-.178l38.28-42.822Zm10.5,4.774a13.581,13.581,0,1,1,.23-27.157,1.135,1.135,0,0,1,.81,1.924c-4.05,4.183-4.74,9.345-1.64,12.279a6.58,6.58,0,0,0,5.57,1.638,12.048,12.048,0,0,0,6.66-3.7l0.1-.1a1.152,1.152,0,0,1,1.22-.268,1.129,1.129,0,0,1,.75.991h0a13.646,13.646,0,0,1-13.67,14.392h-0.03Zm-0.81-25.556a12.159,12.159,0,0,0-8.38,4.149,12.009,12.009,0,0,0,9.19,19.83h0.02a12.057,12.057,0,0,0,12.1-11.707,13.043,13.043,0,0,1-6.93,3.527,8.08,8.08,0,0,1-6.89-2.058C1638.02,694.41,1638.44,688.752,1642.48,684.051Z" transform="translate(-1583.5 -682.438)"/>
</svg>
