<?xml version="1.0" encoding="utf-8"?>
<!-- Generator: Adobe Illustrator 19.2.1, SVG Export Plug-In . SVG Version: 6.00 Build 0)  -->
<svg version="1.1" id="Layer_1" xmlns="http://www.w3.org/2000/svg" xmlns:xlink="http://www.w3.org/1999/xlink" x="0px" y="0px"
	 viewBox="0 0 19 18.1" style="enable-background:new 0 0 19 18.1;" xml:space="preserve">
<style type="text/css">
	.st0{fill:#FFFFFF;}
	.st1{fill:none;stroke:#808080;stroke-width:0.5;stroke-miterlimit:10;}
	.st2{fill:#C62B1E;}
	.st3{fill:none;stroke:#000000;stroke-width:0.5;stroke-miterlimit:10;}
	.st4{fill:#909090;}
	.st5{fill:#4F4F4F;}
	.st6{fill:#4B4F54;}
	.st7{opacity:0.12;fill-rule:evenodd;clip-rule:evenodd;fill:#4F4F4F;}
	.st8{fill:none;stroke:#808080;stroke-miterlimit:10;}
	.st9{opacity:0.8;}
	.st10{fill:none;}
	.st11{fill:none;stroke:#4F4F4F;stroke-width:0.5;stroke-miterlimit:10;}
	.st12{fill:#80291C;}
	.st13{fill:#86754D;}
	.st14{opacity:0.19;}
	.st15{fill:#808080;}
	.st16{fill:#D0291C;}
	.st17{fill:#A3A3A3;}
	.st18{fill:#EAEAEA;}
	.st19{fill:none;stroke:#86754D;stroke-width:0.5;stroke-linecap:round;stroke-linejoin:round;stroke-miterlimit:10;}
	.st20{opacity:0.41;}
	.st21{opacity:0.4;}
	.st22{fill:#5D5D5D;}
	.st23{fill:#A5A5A5;}
	.st24{fill:#1A1A1A;}
	.st25{clip-path:url(#SVGID_30_);}
	.st26{fill:#DA291C;}
	.st27{clip-path:url(#SVGID_34_);}
	.st28{fill:none;stroke:#FFFFFF;stroke-width:1.5;stroke-miterlimit:10;}
</style>
<polygon class="st13" points="12.4,6 19,7 14.2,11.6 15.3,18.1 9.4,15 3.5,18 4.7,11.5 0,6.8 6.6,5.9 9.5,0 "/>
</svg>
